[
    {214019,116900534,"Θ","BECKER","DIANA-ANTJE","ΡΟΛΦ","SIGLINDE"," ",0,2821069777,6938888423,0,"","ΠΕ07","ΓΕΡΜΑΝΙΚΗΣ ΦΙΛΟΛΟΓΙΑΣ",0,0,"Α΄",6,"231","31/8/2006","Χανίων (Δ.Ε.) 2012","ΔΙΕΥΘΥΝΣΗ Δ.Ε. ΧΑΝΙΩΝ","ΠΕΡΙΦΕΡΕΙΑΚΗ Δ/ΝΣΗ Α/ΘΜΙΑΣ ΚΑΙ Β/ΘΜΙΑΣ ΕΚΠ/ΣΗΣ ΚΡΗΤΗΣ",21,"ΟΧΙ","ΟΧΙ","ΟΧΙ","ΟΧΙ","ΟΧΙ",0,"1/9/2006","Γυμνάσια","Ημερήσιο Γυμνάσιο",5001070,"1ο Γυμνάσιο Ελ. Βενιζέλου",2821088045,"mail@1gym-el-venizel.chan.sch.gr","ΧΑΝΙΩΝ","ΧΑΝΙΩΝ","ΕΛΕΥΘΕΡΙΟΥ ΒΕΝΙΖΕΛΟΥ","ΝΕΡΟΚΟΥΡΟΥ",1,"Χανίων (Δ.Ε.) 2012","ΔΙΕΥΘΥΝΣΗ Δ.Ε. ΧΑΝΙΩΝ","ΠΕΡΙΦΕΡΕΙΑΚΗ Δ/ΝΣΗ Α/ΘΜΙΑΣ ΚΑΙ Β/ΘΜΙΑΣ ΕΚΠ/ΣΗΣ ΚΡΗΤΗΣ","Μόνιμος","Οργανικά","22/4/1973"},
{702047,120203645,"Θ","VIRGA","GIUSEPPINA","ΝΤΟΜΕΝΙΚΟ","SERAFINA","ΔΑΡΑΤΣΟ ΝΕΑΣ ΚΥΔΩΝΙΑΣ ",73100,2821057917,6945744601,0,"","ΠΕ34","ΙΤΑΛΙΚΗΣ ΦΙΛΟΛΟΓΙΑΣ",0,0,"Α΄",8,"772","23/8/2010","Χανίων (Δ.Ε.) 2012","ΔΙΕΥΘΥΝΣΗ Δ.Ε. ΧΑΝΙΩΝ","ΠΕΡΙΦΕΡΕΙΑΚΗ Δ/ΝΣΗ Α/ΘΜΙΑΣ ΚΑΙ Β/ΘΜΙΑΣ ΕΚΠ/ΣΗΣ ΚΡΗΤΗΣ",20,"ΟΧΙ","ΟΧΙ","ΟΧΙ","ΟΧΙ","ΟΧΙ",0,"23/8/2010","Γυμνάσια","Ημερήσιο Γυμνάσιο",5001020,"2ο Γυμνάσιο Χανίων",2821042664,"mail@2gym-chanion.chan.sch.gr","ΧΑΝΙΩΝ","ΧΑΝΙΩΝ","ΧΑΝΙΩΝ","ΧΑΝΙΩΝ",1,"Χανίων (Δ.Ε.) 2012","ΔΙΕΥΘΥΝΣΗ Δ.Ε. ΧΑΝΙΩΝ","ΠΕΡΙΦΕΡΕΙΑΚΗ Δ/ΝΣΗ Α/ΘΜΙΑΣ ΚΑΙ Β/ΘΜΙΑΣ ΕΚΠ/ΣΗΣ ΚΡΗΤΗΣ","Μόνιμος","Οργανικά","1/5/1966"},
]