Α.Μ.;Α.Φ.Μ.;Φύλο;Επώνυμο;Όνομα;Πατρώνυμο;Μητρώνυμο;Διεύθυνση Κατοικίας;Τ.Κ.;Τηλέφωνο εκπαιδευτικού;Κινητό Τηλέφωνο εκπαιδευτικού;2ο Τηλέφωνο εκπαιδευτικού;Email εκπαιδευτικού;Κωδ. Ειδικότητας;Ειδικότητα;Κωδ. 2ης Ειδικότητας;2η Ειδικότητα;Βαθμός;Μ.Κ.;Φεκ. Διορισμού;Ημ/νια Διορισμού;Περιοχή Μετάθεσης Εκπ.;Διεύθυνση Περιοχής Μετάθεσης Εκπ.;Περιφέρεια Περιοχής Μετάθεσης Εκπ.;Υποχ. Ωράριο;Αυτοδίκαιη Αποχώρηση (μέχρι και 31/8);Πρόθεση Παραίτησης (μέχρι και 30/4);Έλαβε Μετάθεση;Υπερ-5ετής Απόσπαση σε σχολείο εξωτερικού;5ής Θητεία σε ΠΠΣ;Λήξη Θητείας σε ΠΠΣ;Είδος Σχολείου;Τύπος Σχολείου;Μονάδα Απόσπασης;Ονομασία;Τηλέφωνο;Email;Περιφερειακή Ενότητα;Δήμος;Δημοτική Ενότητα;Κοινότητα;Ομάδα Μονάδας Απόσπασης;Περιοχή Μετάθεσης Μονάδας Απόσπασης;Διεύθυνση Περιοχής Μετάθεσης Μονάδας Απόσπασης;Περιφέρεια Περιοχής Μετάθεσης Μονάδας Απόσπασης;Σχέση Εργασίας;Σχέση Τοποθέτησης;Ημ/νια ανάληψης υπηρεσίας στην Σχ.Μ.;Διεύθυνση Απόσπασης;Αποδέσμευση
173226;"=""043631774""";Θ;ΑΓΓΕΛΙΔΑΚΗ;ΚΑΛΛΙΟΠΗ;ΝΙΚΟΛΑΟΣ;ΕΥΑΓΓΕΛΙΑ;ΚΟΛΟΚΟΤΡΩΝΗ 46 ΡΕΘΥΜΝΟ;74100;2831022452;6977701002;;pangelidaki@yahoo.gr;ΠΕ02;ΦΙΛΟΛΟΓΟΙ;;;Α΄;13;166;23/8/1996;Ρεθύμνου (Δ.Ε.) 2012;ΔΙΕΥΘΥΝΣΗ Δ.Ε. ΡΕΘΥΜΝΟΥ;ΠΕΡΙΦΕΡΕΙΑΚΗ Δ/ΝΣΗ Α/ΘΜΙΑΣ ΚΑΙ Β/ΘΜΙΑΣ ΕΚΠ/ΣΗΣ ΚΡΗΤΗΣ;18;ΟΧΙ;ΟΧΙ;ΟΧΙ;ΟΧΙ;ΟΧΙ;;Λύκεια;Ημερήσιο Γενικό Λύκειο;5051030;2ο Γενικό Λύκειο Χανίων;2821027533;2lykchan@sch.gr;ΧΑΝΙΩΝ;ΧΑΝΙΩΝ;ΧΑΝΙΩΝ;ΧΑΝΙΩΝ;1;Χανίων (Δ.Ε.) 2012;ΔΙΕΥΘΥΝΣΗ Δ.Ε. ΧΑΝΙΩΝ;ΠΕΡΙΦΕΡΕΙΑΚΗ Δ/ΝΣΗ Α/ΘΜΙΑΣ ΚΑΙ Β/ΘΜΙΑΣ ΕΚΠ/ΣΗΣ ΚΡΗΤΗΣ;Μόνιμος;Απόσπαση (με αίτηση - κύριος φορέας);1/9/2017;ΔΙΕΥΘΥΝΣΗ Δ.Ε. ΧΑΝΙΩΝ;NAI
703407;"=""064115351""";Α;ΒΑΡΔΑΛΑΧΑΚΗΣ;ΙΩΑΝΝΗΣ;ΝΙΚΟΛΑΟΣ;ΒΑΣΙΛΕΙΑ;ΜΙΝΩΟΣ 19 Ηράκλειο;71303;2810316937;6977432953;;giannis_vard@hotmail.com;ΠΕ09;ΟΙΚΟΝΟΜΟΛΟΓΟΙ;;;Α΄;5;1260/Γ/09-12-2016;23/8/2010;Α΄ Δωδεκανήσου (Δ.Ε.) 2012;ΔΙΕΥΘΥΝΣΗ Δ.Ε. ΔΩΔΕΚΑΝΗΣΟΥ;ΠΕΡΙΦΕΡΕΙΑΚΗ Δ/ΝΣΗ Α/ΘΜΙΑΣ ΚΑΙ Β/ΘΜΙΑΣ ΕΚΠ/ΣΗΣ ΝΟΤΙΟΥ ΑΙΓΑΙΟΥ;21;ΟΧΙ;ΟΧΙ;ΟΧΙ;ΟΧΙ;ΟΧΙ;;Επαγγελματικά Λύκεια;Ημερήσιο ΕΠΑΛ;5040105;ΕΠΑΛ Βρυσών;2825051703;mail@1epal-bryson.chan.sch.gr;ΧΑΝΙΩΝ;ΑΠΟΚΟΡΩΝΟΥ;ΚΡΥΟΝΕΡΙΔΑΣ;ΒΡΥΣΩΝ;1;Χανίων (Δ.Ε.) 2012;ΔΙΕΥΘΥΝΣΗ Δ.Ε. ΧΑΝΙΩΝ;ΠΕΡΙΦΕΡΕΙΑΚΗ Δ/ΝΣΗ Α/ΘΜΙΑΣ ΚΑΙ Β/ΘΜΙΑΣ ΕΚΠ/ΣΗΣ ΚΡΗΤΗΣ;Μόνιμος;Απόσπαση (με αίτηση - κύριος φορέας);1/9/2017;ΔΙΕΥΘΥΝΣΗ Δ.Ε. ΧΑΝΙΩΝ;NAI
209416;"=""126507271""";Θ;ΒΕΝΕΤΟΠΟΥΛΟΥ;ΣΟΦΙΑ;ΒΑΣΙΛΕΙΟΣ;ΕΛΛΗ; ;;;6947513463;;svenetopoulou@gmail.com;ΠΕ02;ΦΙΛΟΛΟΓΟΙ;;;Α΄;6;225;9/9/2005;Χαλκιδικής (Δ.Ε.) 2012;ΔΙΕΥΘΥΝΣΗ Δ.Ε. ΧΑΛΚΙΔΙΚΗΣ;ΠΕΡΙΦΕΡΕΙΑΚΗ Δ/ΝΣΗ Α/ΘΜΙΑΣ ΚΑΙ Β/ΘΜΙΑΣ ΕΚΠ/ΣΗΣ ΚΕΝΤΡΙΚΗΣ ΜΑΚΕΔΟΝΙΑΣ;20;ΟΧΙ;ΟΧΙ;ΟΧΙ;ΟΧΙ;ΟΧΙ;;Λύκεια;Ημερήσιο Γενικό Λύκειο;5051030;2ο Γενικό Λύκειο Χανίων;2821027533;2lykchan@sch.gr;ΧΑΝΙΩΝ;ΧΑΝΙΩΝ;ΧΑΝΙΩΝ;ΧΑΝΙΩΝ;1;Χανίων (Δ.Ε.) 2012;ΔΙΕΥΘΥΝΣΗ Δ.Ε. ΧΑΝΙΩΝ;ΠΕΡΙΦΕΡΕΙΑΚΗ Δ/ΝΣΗ Α/ΘΜΙΑΣ ΚΑΙ Β/ΘΜΙΑΣ ΕΚΠ/ΣΗΣ ΚΡΗΤΗΣ;Μόνιμος;Απόσπαση (με αίτηση - κύριος φορέας);1/9/2017;ΔΙΕΥΘΥΝΣΗ Δ.Ε. ΧΑΝΙΩΝ;NAI
219580;"=""037927962""";Α;ΓΑΓΑΝΗΣ;ΝΙΚΟΛΑΟΣ;ΜΙΧΑΗΛ;ΑΡΤΕΜΗΣΙΑ;ΗΡΩΩΝ ΠΟΛΥΤΕΧΝΕΙΟΥ 3 ΧΑΝΙΑ;73100;2821027952;6973733196;;gaganick@gmail.com;ΠΕ08;ΚΑΛΩΝ ΤΕΧΝΩΝ;;;Α΄;5;599;16/8/2007;Ρεθύμνου (Δ.Ε.) 2012;ΔΙΕΥΘΥΝΣΗ Δ.Ε. ΡΕΘΥΜΝΟΥ;ΠΕΡΙΦΕΡΕΙΑΚΗ Δ/ΝΣΗ Α/ΘΜΙΑΣ ΚΑΙ Β/ΘΜΙΑΣ ΕΚΠ/ΣΗΣ ΚΡΗΤΗΣ;21;ΟΧΙ;ΟΧΙ;ΟΧΙ;ΟΧΙ;ΟΧΙ;;Γυμνάσια;Ημερήσιο Γυμνάσιο;5004020;2ο Γυμνάσιο Κισάμου;2822022103;mail@2gym-kissam.chan.sch.gr;ΧΑΝΙΩΝ;ΚΙΣΣΑΜΟΥ;ΚΙΣΣΑΜΟΥ;ΚΙΣΣΑΜΟΥ;1;Χανίων (Δ.Ε.) 2012;ΔΙΕΥΘΥΝΣΗ Δ.Ε. ΧΑΝΙΩΝ;ΠΕΡΙΦΕΡΕΙΑΚΗ Δ/ΝΣΗ Α/ΘΜΙΑΣ ΚΑΙ Β/ΘΜΙΑΣ ΕΚΠ/ΣΗΣ ΚΡΗΤΗΣ;Μόνιμος;Απόσπαση (με αίτηση - κύριος φορέας);1/9/2017;ΔΙΕΥΘΥΝΣΗ Δ.Ε. ΧΑΝΙΩΝ;NAI
220857;"=""062474573""";Θ;ΔΙΑΜΑΝΤΗ;ΔΗΜΗΤΡΑ;ΑΘΑΝΑΣΙΟΣ;ΕΛΕΝΗ; ;;2104650105;6978211766;;demadamond@yahoo.gr;ΠΕ08;ΚΑΛΩΝ ΤΕΧΝΩΝ;;;Α΄;5;681;31/8/2007;Κοζάνης (Δ.Ε.) 2012;ΔΙΕΥΘΥΝΣΗ Δ.Ε. ΚΟΖΑΝΗΣ;ΠΕΡΙΦΕΡΕΙΑΚΗ Δ/ΝΣΗ Α/ΘΜΙΑΣ ΚΑΙ Β/ΘΜΙΑΣ ΕΚΠ/ΣΗΣ ΔΥΤΙΚΗΣ ΜΑΚΕΔΟΝΙΑΣ;21;ΟΧΙ;ΟΧΙ;ΟΧΙ;ΟΧΙ;ΟΧΙ;;Γυμνάσια;Ημερήσιο Γυμνάσιο;5001020;2ο Γυμνάσιο Χανίων;2821042664;mail@2gym-chanion.chan.sch.gr;ΧΑΝΙΩΝ;ΧΑΝΙΩΝ;ΧΑΝΙΩΝ;ΧΑΝΙΩΝ;1;Χανίων (Δ.Ε.) 2012;ΔΙΕΥΘΥΝΣΗ Δ.Ε. ΧΑΝΙΩΝ;ΠΕΡΙΦΕΡΕΙΑΚΗ Δ/ΝΣΗ Α/ΘΜΙΑΣ ΚΑΙ Β/ΘΜΙΑΣ ΕΚΠ/ΣΗΣ ΚΡΗΤΗΣ;Μόνιμος;Απόσπαση (με αίτηση - κύριος φορέας);1/9/2017;ΔΙΕΥΘΥΝΣΗ Δ.Ε. ΧΑΝΙΩΝ;NAI
197048;"=""105624855""";Θ;ΖΙΩΓΑ;ΜΑΡΙΑ;ΔΗΜΗΤΡΙΟΣ;ΒΑΣΙΛΙΚΗ; ;;2821020727;6977452892;;ziogamaria81@gtmail.com;ΠΕ02;ΦΙΛΟΛΟΓΟΙ;;;Α΄;7;206;2/9/2003;Βοιωτίας (Δ.Ε.) 2012;ΔΙΕΥΘΥΝΣΗ Δ.Ε. ΒΟΙΩΤΙΑΣ;ΠΕΡΙΦΕΡΕΙΑΚΗ Δ/ΝΣΗ Α/ΘΜΙΑΣ ΚΑΙ Β/ΘΜΙΑΣ ΕΚΠ/ΣΗΣ ΣΤΕΡΕΑΣ ΕΛΛΑΔΑΣ;20;ΟΧΙ;ΟΧΙ;ΟΧΙ;ΟΧΙ;ΟΧΙ;;Λύκεια;Ημερήσιο Γενικό Λύκειο;5051040;3ο Γενικό Λύκειο Χανίων;2821088007;mail@3lyk-chanion.chan.sch.gr;ΧΑΝΙΩΝ;ΧΑΝΙΩΝ;ΧΑΝΙΩΝ;ΧΑΝΙΩΝ;1;Χανίων (Δ.Ε.) 2012;ΔΙΕΥΘΥΝΣΗ Δ.Ε. ΧΑΝΙΩΝ;ΠΕΡΙΦΕΡΕΙΑΚΗ Δ/ΝΣΗ Α/ΘΜΙΑΣ ΚΑΙ Β/ΘΜΙΑΣ ΕΚΠ/ΣΗΣ ΚΡΗΤΗΣ;Μόνιμος;Απόσπαση (με αίτηση - κύριος φορέας);1/9/2017;ΔΙΕΥΘΥΝΣΗ Δ.Ε. ΧΑΝΙΩΝ;NAI
223359;"=""062596841""";Α;ΚΑΠΕΤΑΝΑΚΗΣ;ΣΤΥΛΙΑΝΟΣ;ΧΑΡΑΛ;ΑΙΚΑΤ;Π. ΠΡΕΒΕΛΑΚΗ 3 ΧΑΝΙΑ;73133;2821040416;6977368951;;s.kape@yahoo.gr;ΠΕ04.01;ΦΥΣΙΚΟΙ;;;Α΄;5;775;20/8/2008;Ηλείας (Δ.Ε.) 2012;ΔΙΕΥΘΥΝΣΗ Δ.Ε. ΗΛΕΙΑΣ;ΠΕΡΙΦΕΡΕΙΑΚΗ Δ/ΝΣΗ Α/ΘΜΙΑΣ ΚΑΙ Β/ΘΜΙΑΣ ΕΚΠ/ΣΗΣ ΔΥΤΙΚΗΣ ΕΛΛΑΔΑΣ;21;ΟΧΙ;ΟΧΙ;ΟΧΙ;ΟΧΙ;ΟΧΙ;;Λύκεια;Ημερήσιο Γενικό Λύκειο;5051030;2ο Γενικό Λύκειο Χανίων;2821027533;2lykchan@sch.gr;ΧΑΝΙΩΝ;ΧΑΝΙΩΝ;ΧΑΝΙΩΝ;ΧΑΝΙΩΝ;1;Χανίων (Δ.Ε.) 2012;ΔΙΕΥΘΥΝΣΗ Δ.Ε. ΧΑΝΙΩΝ;ΠΕΡΙΦΕΡΕΙΑΚΗ Δ/ΝΣΗ Α/ΘΜΙΑΣ ΚΑΙ Β/ΘΜΙΑΣ ΕΚΠ/ΣΗΣ ΚΡΗΤΗΣ;Μόνιμος;Απόσπαση (με αίτηση - κύριος φορέας);1/9/2017;ΔΙΕΥΘΥΝΣΗ Δ.Ε. ΧΑΝΙΩΝ;NAI
700021;"=""072703683""";Θ;ΚΑΡΑΚΩΣΤΑ;ΛΟΥΚΙΑ;ΓΕΩΡΓΙΟΣ;ΕΥΑΓΓΕΛΙΑ;ΑΙΓΙΑΛΗ ΑΜΟΡΓΟΣ;84008;2285073145;6936494219;2286030308;loukia123@yahoo.gr;ΠΕ16.01;ΜΟΥΣΙΚΗΣ ΠΤΥΧ. ΜΟΥΣΙΚΗΣ ΕΠΙΣΤΗΜΗΣ;;;Α΄;4;772;23/8/2010;Β΄ Κυκλάδων (Δ.Ε.) 2012;ΔΙΕΥΘΥΝΣΗ Δ.Ε. ΚΥΚΛΑΔΩΝ;ΠΕΡΙΦΕΡΕΙΑΚΗ Δ/ΝΣΗ Α/ΘΜΙΑΣ ΚΑΙ Β/ΘΜΙΑΣ ΕΚΠ/ΣΗΣ ΝΟΤΙΟΥ ΑΙΓΑΙΟΥ;21;ΟΧΙ;ΟΧΙ;ΟΧΙ;ΟΧΙ;ΟΧΙ;;Γυμνάσια;Ημερήσιο Γυμνάσιο;5012010;ΓΥΜΝΑΣΙΟ ΝΕΑΣ ΚΥΔΩΝΙΑΣ;2821033195;mail@gym-n-kydon.chan.sch.gr;ΧΑΝΙΩΝ;ΧΑΝΙΩΝ;ΝΕΑΣ ΚΥΔΩΝΙΑΣ;ΔΑΡΑΤΣΟΥ;1;Χανίων (Δ.Ε.) 2012;ΔΙΕΥΘΥΝΣΗ Δ.Ε. ΧΑΝΙΩΝ;ΠΕΡΙΦΕΡΕΙΑΚΗ Δ/ΝΣΗ Α/ΘΜΙΑΣ ΚΑΙ Β/ΘΜΙΑΣ ΕΚΠ/ΣΗΣ ΚΡΗΤΗΣ;Μόνιμος;Απόσπαση (με αίτηση - κύριος φορέας);1/9/2017;ΔΙΕΥΘΥΝΣΗ Δ.Ε. ΧΑΝΙΩΝ;NAI
215258;"=""073289232""";Θ;ΚΑΡΡΑ;ΚΑΛΛΙΟΠΗ;ΛΑΜΠΡΟΣ;ΔΗΜΗΤΡΑ; ;;2310835623;6972311590;;kkara@ymail.com;ΠΕ18.33;ΒΡΕΦΟΝΗΠΙΟΚΟΜΟΙ;;;Α΄;7;231;31/8/2006;Α΄ Θεσσαλονίκης (Δ.Ε.) 2012;ΔΙΕΥΘΥΝΣΗ Δ.Ε. ΑΝΑΤ. ΘΕΣ/ΝΙΚΗΣ;ΠΕΡΙΦΕΡΕΙΑΚΗ Δ/ΝΣΗ Α/ΘΜΙΑΣ ΚΑΙ Β/ΘΜΙΑΣ ΕΚΠ/ΣΗΣ ΚΕΝΤΡΙΚΗΣ ΜΑΚΕΔΟΝΙΑΣ;20;ΟΧΙ;ΟΧΙ;NAI;ΟΧΙ;ΟΧΙ;;Επαγγελματικά Λύκεια;Ημερήσιο ΕΠΑΛ;5040090;ΕΠΑΛ Κισάμου;2822022275;mail@epal-kissam.chan.sch.gr;ΧΑΝΙΩΝ;ΚΙΣΣΑΜΟΥ;ΚΙΣΣΑΜΟΥ;ΚΙΣΣΑΜΟΥ;1;Χανίων (Δ.Ε.) 2012;ΔΙΕΥΘΥΝΣΗ Δ.Ε. ΧΑΝΙΩΝ;ΠΕΡΙΦΕΡΕΙΑΚΗ Δ/ΝΣΗ Α/ΘΜΙΑΣ ΚΑΙ Β/ΘΜΙΑΣ ΕΚΠ/ΣΗΣ ΚΡΗΤΗΣ;Μόνιμος;Απόσπαση (με αίτηση - κύριος φορέας);1/9/2017;ΔΙΕΥΘΥΝΣΗ Δ.Ε. ΧΑΝΙΩΝ;NAI
200573;"=""041678821""";Θ;ΚΛΑΠΑΝΑΡΑ;ΣΩΤΗΡΙΑ;ΔΗΜΗΤΡΙΟΣ;ΑΛΕΞΑΝΔΡΑ;ΠΑΝΟΡΑΜΑ ΑΓΙΟΥ ΔΗΜΗΤΡΙΟΥ (ΟΙΚ. ΠΑΤΡΙΝΟΥ) ΕΡΜΟΥΠΟΛΗ ΣΥΠΟΥ;84100;2431026055;6944614743;;astartina@gmail.com;ΠΕ09;ΟΙΚΟΝΟΜΟΛΟΓΟΙ;ΠΕ11;ΦΥΣΙΚΗΣ ΑΓΩΓΗΣ;Α΄;8;213;10/9/2003;Τρικάλων (Δ.Ε.) 2012;ΔΙΕΥΘΥΝΣΗ Δ.Ε. ΤΡΙΚΑΛΩΝ;ΠΕΡΙΦΕΡΕΙΑΚΗ Δ/ΝΣΗ Α/ΘΜΙΑΣ ΚΑΙ Β/ΘΜΙΑΣ ΕΚΠ/ΣΗΣ ΘΕΣΣΑΛΙΑΣ;20;ΟΧΙ;ΟΧΙ;ΟΧΙ;ΟΧΙ;ΟΧΙ;;Επαγγελματικά Λύκεια;Ημερήσιο ΕΠΑΛ;5050065;ΕΠΑ.Λ. Καντάνου;2823022234;mail@1epal-kandan.chan.sch.gr;ΧΑΝΙΩΝ;ΚΑΝΤΑΝΟΥ - ΣΕΛΙΝΟΥ;ΚΑΝΤΑΝΟΥ;ΚΑΝΔΑΝΟΥ (ΚΑΝΤΑΝΟΥ);1;Χανίων (Δ.Ε.) 2012;ΔΙΕΥΘΥΝΣΗ Δ.Ε. ΧΑΝΙΩΝ;ΠΕΡΙΦΕΡΕΙΑΚΗ Δ/ΝΣΗ Α/ΘΜΙΑΣ ΚΑΙ Β/ΘΜΙΑΣ ΕΚΠ/ΣΗΣ ΚΡΗΤΗΣ;Μόνιμος;Απόσπαση (με αίτηση - κύριος φορέας);1/9/2017;ΔΙΕΥΘΥΝΣΗ Δ.Ε. ΧΑΝΙΩΝ;NAI
222209;"=""100770347""";Α;ΚΟΥΚΟΥΛΑΡΗΣ;ΔΗΜΗΤΡΙΟΣ;ΠΕΤΡΟΣ;ΑΜΑΛΙΑ; ;;2294046885;6948066992;;;ΠΕ02;ΦΙΛΟΛΟΓΟΙ;;;Α΄;7;775;20/8/2008;Αχαιας (Δ.Ε.) 2012;ΔΙΕΥΘΥΝΣΗ Δ.Ε. ΑΧΑΪΑΣ;ΠΕΡΙΦΕΡΕΙΑΚΗ Δ/ΝΣΗ Α/ΘΜΙΑΣ ΚΑΙ Β/ΘΜΙΑΣ ΕΚΠ/ΣΗΣ ΔΥΤΙΚΗΣ ΕΛΛΑΔΑΣ;21;ΟΧΙ;ΟΧΙ;ΟΧΙ;ΟΧΙ;ΟΧΙ;;Λύκεια;Ημερήσιο Γενικό Λύκειο;5055010;Γενικό Λύκειο Παλαιόχωρας;2823041416;mail@lyk-palaioch.chan.sch.gr;ΧΑΝΙΩΝ;ΚΑΝΤΑΝΟΥ - ΣΕΛΙΝΟΥ;ΠΕΛΕΚΑΝΟΥ;ΠΑΛΑΙΟΧΩΡΑΣ;1;Χανίων (Δ.Ε.) 2012;ΔΙΕΥΘΥΝΣΗ Δ.Ε. ΧΑΝΙΩΝ;ΠΕΡΙΦΕΡΕΙΑΚΗ Δ/ΝΣΗ Α/ΘΜΙΑΣ ΚΑΙ Β/ΘΜΙΑΣ ΕΚΠ/ΣΗΣ ΚΡΗΤΗΣ;Μόνιμος;Απόσπαση (με αίτηση - κύριος φορέας);1/9/2017;ΔΙΕΥΘΥΝΣΗ Δ.Ε. ΧΑΝΙΩΝ;NAI
205857;"=""107816178""";Θ;ΛΕΜΠΙΔΑΚΗ;ΜΑΡΙΑ;ΚΩΝΣΤΑΝΤΙΝΟΣ;ΒΑΡΒΑΡΑ;Πρώτη Πάροδος Ροζάκηδων 6 ;73100;2821082927;6978942977;;marialemp7@gmail.com;ΠΕ02;ΦΙΛΟΛΟΓΟΙ;;;Α΄;7;75/Γ/15-03-2006;1/9/2003;Κοζάνης (Δ.Ε.) 2012;ΔΙΕΥΘΥΝΣΗ Δ.Ε. ΚΟΖΑΝΗΣ;ΠΕΡΙΦΕΡΕΙΑΚΗ Δ/ΝΣΗ Α/ΘΜΙΑΣ ΚΑΙ Β/ΘΜΙΑΣ ΕΚΠ/ΣΗΣ ΔΥΤΙΚΗΣ ΜΑΚΕΔΟΝΙΑΣ;20;ΟΧΙ;ΟΧΙ;ΟΧΙ;ΟΧΙ;ΟΧΙ;;Γυμνάσια;Ημερήσιο Γυμνάσιο;5001010;1ο Γυμνάσιο Χανίων;2821052130;mail@1gym-chanion.chan.sch.gr;ΧΑΝΙΩΝ;ΧΑΝΙΩΝ;ΧΑΝΙΩΝ;ΧΑΝΙΩΝ;1;Χανίων (Δ.Ε.) 2012;ΔΙΕΥΘΥΝΣΗ Δ.Ε. ΧΑΝΙΩΝ;ΠΕΡΙΦΕΡΕΙΑΚΗ Δ/ΝΣΗ Α/ΘΜΙΑΣ ΚΑΙ Β/ΘΜΙΑΣ ΕΚΠ/ΣΗΣ ΚΡΗΤΗΣ;Μόνιμος;Απόσπαση (με αίτηση - κύριος φορέας);1/9/2017;ΔΙΕΥΘΥΝΣΗ Δ.Ε. ΧΑΝΙΩΝ;NAI
212171;"=""045905484""";Θ;ΜΑΓΔΑΛΗΝΟΥ;ΒΙΟΛΕΤΑ;ΚΩΝΣΤΑΝΤΙΝΟΣ;ΑΙΚΑΤΕΡΙΝΗ; ;;2102752709;6977164858;6956027362;;ΠΕ02;ΦΙΛΟΛΟΓΟΙ;;;Α΄;6;231;31/8/2006;Δυτ. Αττικής (Δ.Ε.) 2012;ΔΙΕΥΘΥΝΣΗ Δ.Ε. ΔΥΤΙΚΗΣ ΑΤΤΙΚΗΣ;ΠΕΡΙΦΕΡΕΙΑΚΗ Δ/ΝΣΗ Α/ΘΜΙΑΣ ΚΑΙ Β/ΘΜΙΑΣ ΕΚΠ/ΣΗΣ ΑΤΤΙΚΗΣ;20;ΟΧΙ;ΟΧΙ;ΟΧΙ;ΟΧΙ;ΟΧΙ;;Λύκεια;Ημερήσιο Γενικό Λύκειο;5090080;Γενικό Λύκειο Ελευθερίου Βενιζέλου;2821096638;lykelveniz@sch.gr;ΧΑΝΙΩΝ;ΧΑΝΙΩΝ;ΧΑΝΙΩΝ;ΧΑΝΙΩΝ;1;Χανίων (Δ.Ε.) 2012;ΔΙΕΥΘΥΝΣΗ Δ.Ε. ΧΑΝΙΩΝ;ΠΕΡΙΦΕΡΕΙΑΚΗ Δ/ΝΣΗ Α/ΘΜΙΑΣ ΚΑΙ Β/ΘΜΙΑΣ ΕΚΠ/ΣΗΣ ΚΡΗΤΗΣ;Μόνιμος;Απόσπαση (με αίτηση - κύριος φορέας);1/9/2017;ΔΙΕΥΘΥΝΣΗ Δ.Ε. ΧΑΝΙΩΝ;NAI
155292;"=""030719144""";Α;ΜΕΝΤΖΕΛΟΠΟΥΛΟΣ;ΙΩΑΝΝΗΣ;ΣΤΥΛΙΑΝΟΣ;ΕΛΕΝΗ;Μ. ΗΣΥΧΑΚΗ 6 ΧΑΝΙΑ;73132;2821042832;6978602500;2821033195;;ΠΕ16.01;ΜΟΥΣΙΚΗΣ ΠΤΥΧ. ΜΟΥΣΙΚΗΣ ΕΠΙΣΤΗΜΗΣ;;;Α΄;14;167;7/9/1988;Χανίων (Δ.Ε.) 2012;ΔΙΕΥΘΥΝΣΗ Δ.Ε. ΧΑΝΙΩΝ;ΠΕΡΙΦΕΡΕΙΑΚΗ Δ/ΝΣΗ Α/ΘΜΙΑΣ ΚΑΙ Β/ΘΜΙΑΣ ΕΚΠ/ΣΗΣ ΚΡΗΤΗΣ;18;ΟΧΙ;ΟΧΙ;ΟΧΙ;ΟΧΙ;ΟΧΙ;;Γυμνάσια;Μουσικό Γυμνάσιο με Μουσικές Λυκειακές Τάξεις;5012017;Μουσικό Σχολείο Θερίσου;2821088065;mail@gym-mous-theris.chan.sch.gr;ΧΑΝΙΩΝ;ΧΑΝΙΩΝ;ΧΑΝΙΩΝ;ΧΑΝΙΩΝ;1;Χανίων (Δ.Ε.) 2012;ΔΙΕΥΘΥΝΣΗ Δ.Ε. ΧΑΝΙΩΝ;ΠΕΡΙΦΕΡΕΙΑΚΗ Δ/ΝΣΗ Α/ΘΜΙΑΣ ΚΑΙ Β/ΘΜΙΑΣ ΕΚΠ/ΣΗΣ ΚΡΗΤΗΣ;Μόνιμος;Απόσπαση (με αίτηση - κύριος φορέας);1/9/2017;ΔΙΕΥΘΥΝΣΗ Δ.Ε. ΧΑΝΙΩΝ;NAI
701924;"=""131946876""";Θ;ΜΙΣΧΟΠΟΥΛΟΥ;ΑΙΚΑΤΕΡΙΝΗ;ΑΛΕΞΑΝΔΡΟΣ;ΧΡΥΣΗ;ΗΓΟΥΜΕΝΟΥ ΓΑΒΡΙΗΛ 22 ;73134;2821053778;6989343445;;;ΠΕ02;ΦΙΛΟΛΟΓΟΙ;;;Α΄;6;772;23/8/2010;Ρεθύμνου (Δ.Ε.) 2012;ΔΙΕΥΘΥΝΣΗ Δ.Ε. ΡΕΘΥΜΝΟΥ;ΠΕΡΙΦΕΡΕΙΑΚΗ Δ/ΝΣΗ Α/ΘΜΙΑΣ ΚΑΙ Β/ΘΜΙΑΣ ΕΚΠ/ΣΗΣ ΚΡΗΤΗΣ;21;ΟΧΙ;ΟΧΙ;ΟΧΙ;ΟΧΙ;ΟΧΙ;;Γυμνάσια;Ημερήσιο Γυμνάσιο;5008010;Γυμνάσιο Χώρας Σφακίων;2825091207;mail@gym-sfakion.chan.sch.gr;ΧΑΝΙΩΝ;ΣΦΑΚΙΩΝ;ΣΦΑΚΙΩΝ;ΧΩΡΑΣ ΣΦΑΚΙΩΝ;1;Χανίων (Δ.Ε.) 2012;ΔΙΕΥΘΥΝΣΗ Δ.Ε. ΧΑΝΙΩΝ;ΠΕΡΙΦΕΡΕΙΑΚΗ Δ/ΝΣΗ Α/ΘΜΙΑΣ ΚΑΙ Β/ΘΜΙΑΣ ΕΚΠ/ΣΗΣ ΚΡΗΤΗΣ;Μόνιμος;Απόσπαση (με αίτηση - κύριος φορέας);1/9/2017;ΔΙΕΥΘΥΝΣΗ Δ.Ε. ΧΑΝΙΩΝ;NAI
703780;"=""112917052""";Θ;ΝΙΚΟΛΙΔΑΚΗ;ΣΤΥΛΙΑΝΗ;ΓΕΩΡΓΙΟΣ;ΕΥΑΓΓΕΛΙΑ;ΡΗΓΑ 25 ΠΕΡΙΣΤΕΡΙ ;12136;2105746098;6944726092;;stellanik@gmail.com;ΠΕ17.02;ΜΗΧΑΝΟΛΟΓΟΙ ΑΣΕΤΕΜ;;;Α΄;5;225;25/2/2014;Ρεθύμνου (Δ.Ε.) 2012;ΔΙΕΥΘΥΝΣΗ Δ.Ε. ΡΕΘΥΜΝΟΥ;ΠΕΡΙΦΕΡΕΙΑΚΗ Δ/ΝΣΗ Α/ΘΜΙΑΣ ΚΑΙ Β/ΘΜΙΑΣ ΕΚΠ/ΣΗΣ ΚΡΗΤΗΣ;21;ΟΧΙ;ΟΧΙ;ΟΧΙ;ΟΧΙ;ΟΧΙ;;Επαγγελματικά Λύκεια;Ημερήσιο ΕΠΑΛ;5050060;2ο ΕΠΑΛ Χανίων;2821091515;mail@2epal-chanion.chan.sch.gr;ΧΑΝΙΩΝ;ΧΑΝΙΩΝ;ΧΑΝΙΩΝ;ΧΑΝΙΩΝ;1;Χανίων (Δ.Ε.) 2012;ΔΙΕΥΘΥΝΣΗ Δ.Ε. ΧΑΝΙΩΝ;ΠΕΡΙΦΕΡΕΙΑΚΗ Δ/ΝΣΗ Α/ΘΜΙΑΣ ΚΑΙ Β/ΘΜΙΑΣ ΕΚΠ/ΣΗΣ ΚΡΗΤΗΣ;Μόνιμος;Απόσπαση (με αίτηση - κύριος φορέας);1/9/2017;ΔΙΕΥΘΥΝΣΗ Δ.Ε. ΧΑΝΙΩΝ;NAI
703053;"=""074951914""";Θ;ΠΟΝΤΙΚΑΚΗ;ΕΙΡΗΝΗ;ΚΥΡΙΑΚΟΣ;ΑΙΚΑΤΕΡΙΝΗ;ΜΑΛΑΘΥΡΟΥ 11 ΧΑΝΙΑ;73135;2821093493;6945953146;;;ΠΕ02;ΦΙΛΟΛΟΓΟΙ;;;Α΄;5;588;23/8/2011;Α΄ Δωδεκανήσου (Δ.Ε.) 2012;ΔΙΕΥΘΥΝΣΗ Δ.Ε. ΔΩΔΕΚΑΝΗΣΟΥ;ΠΕΡΙΦΕΡΕΙΑΚΗ Δ/ΝΣΗ Α/ΘΜΙΑΣ ΚΑΙ Β/ΘΜΙΑΣ ΕΚΠ/ΣΗΣ ΝΟΤΙΟΥ ΑΙΓΑΙΟΥ;23;ΟΧΙ;ΟΧΙ;ΟΧΙ;ΟΧΙ;ΟΧΙ;;Λύκεια;Ημερήσιο Γενικό Λύκειο;5051009;Γενικό Λύκειο Ακρωτηρίου;2821044551;mail@lyk-akrot.chan.sch.gr;ΧΑΝΙΩΝ;ΧΑΝΙΩΝ;ΑΚΡΩΤΗΡΙΟΥ;ΚΟΥΝΟΥΠΙΔΙΑΝΩΝ;1;Χανίων (Δ.Ε.) 2012;ΔΙΕΥΘΥΝΣΗ Δ.Ε. ΧΑΝΙΩΝ;ΠΕΡΙΦΕΡΕΙΑΚΗ Δ/ΝΣΗ Α/ΘΜΙΑΣ ΚΑΙ Β/ΘΜΙΑΣ ΕΚΠ/ΣΗΣ ΚΡΗΤΗΣ;Μόνιμος;Απόσπαση (με αίτηση - κύριος φορέας);1/9/2017;ΔΙΕΥΘΥΝΣΗ Δ.Ε. ΧΑΝΙΩΝ;NAI
701173;"=""069367684""";Θ;ΡΑΠΤΗ;ΜΑΡΙΑ;ΝΙΚΟΛΑΟΣ;ΓΕΡΑΣΙΜΟΥΛΑ;ΑΚΡΩΤΗΡΙΟΥ ΚΟΥΝΟΥΠΙΔΙΑΝΑ ΧΑΝΙΩΝ;73100;2821069433;6974011510;;mdrapti@yahoo.gr;ΠΕ04.01;ΦΥΣΙΚΟΙ;ΠΕ19;ΠΛΗΡΟΦΟΡΙΚΗΣ Α.Ε.Ι.;Α΄;7;772;23/8/2010;Χανίων (Δ.Ε.) 2012;ΔΙΕΥΘΥΝΣΗ Δ.Ε. ΧΑΝΙΩΝ;ΠΕΡΙΦΕΡΕΙΑΚΗ Δ/ΝΣΗ Α/ΘΜΙΑΣ ΚΑΙ Β/ΘΜΙΑΣ ΕΚΠ/ΣΗΣ ΚΡΗΤΗΣ;20;ΟΧΙ;ΟΧΙ;ΟΧΙ;ΟΧΙ;ΟΧΙ;;Αποκεντρωμένες Υπηρεσίες;Διεύθυνση Εκπαίδευσης;5000105;ΔΙΕΥΘΥΝΣΗ Δ.Ε. ΧΑΝΙΩΝ;2821047144;mail@dide.chan.sch.gr;ΧΑΝΙΩΝ;ΧΑΝΙΩΝ;ΧΑΝΙΩΝ;ΧΑΝΙΩΝ;;;;;Μόνιμος;Απόσπαση (με αίτηση - κύριος φορέας);1/9/2017;ΔΙΕΥΘΥΝΣΗ Δ.Ε. ΧΑΝΙΩΝ;NAI
204760;"=""038685296""";Α;ΡΑΧΙΩΤΗΣ;ΧΡΗΣΤΟΣ;ΑΠΟΣΤΟΛΟΣ;ΣΜΑΡΑΓΔΑ; ;;2107770868;6938986455;;;ΠΕ17.04;ΗΛΕΚΤΡΟΝΙΚΟΙ ΑΣΕΤΕΜ;ΠΕ18.41;ΔΡΑΜΑΤΙΚΗΣ ΤΕΧΝΗΣ;Α΄;10;231;31/8/2004;Ηρακλείου (Δ.Ε.) 2012;ΔΙΕΥΘΥΝΣΗ Δ.Ε. ΗΡΑΚΛΕΙΟΥ;ΠΕΡΙΦΕΡΕΙΑΚΗ Δ/ΝΣΗ Α/ΘΜΙΑΣ ΚΑΙ Β/ΘΜΙΑΣ ΕΚΠ/ΣΗΣ ΚΡΗΤΗΣ;20;ΟΧΙ;ΟΧΙ;ΟΧΙ;ΟΧΙ;ΟΧΙ;;Γυμνάσια;Ημερήσιο Γυμνάσιο;5001040;3ο Γυμνάσιο Χανίων;2821088010;;ΧΑΝΙΩΝ;ΧΑΝΙΩΝ;ΧΑΝΙΩΝ;ΧΑΝΙΩΝ;1;Χανίων (Δ.Ε.) 2012;ΔΙΕΥΘΥΝΣΗ Δ.Ε. ΧΑΝΙΩΝ;ΠΕΡΙΦΕΡΕΙΑΚΗ Δ/ΝΣΗ Α/ΘΜΙΑΣ ΚΑΙ Β/ΘΜΙΑΣ ΕΚΠ/ΣΗΣ ΚΡΗΤΗΣ;Μόνιμος;Απόσπαση (με αίτηση - κύριος φορέας);1/9/2017;ΔΙΕΥΘΥΝΣΗ Δ.Ε. ΧΑΝΙΩΝ;NAI
621212;"=""141203609""";Θ;ΡΟΥΜΕΛΙΩΤΟΥ;ΚΑΛΛΙΟΠΗ;ΜΑΡΙΟΣ;ΑΘΑΝΑΣΙΑ; ;;;;;;ΠΕ70;ΔΑΣΚΑΛΟΙ;;;Α΄;6;653;18/8/2009;Ηράκλειο (Π.Ε.) 2012;ΔΙΕΥΘΥΝΣΗ Π.Ε. ΗΡΑΚΛΕΙΟΥ;ΠΕΡΙΦΕΡΕΙΑΚΗ Δ/ΝΣΗ Α/ΘΜΙΑΣ ΚΑΙ Β/ΘΜΙΑΣ ΕΚΠ/ΣΗΣ ΚΡΗΤΗΣ;24;ΟΧΙ;ΟΧΙ;ΟΧΙ;ΟΧΙ;ΟΧΙ;;Ειδικής Επαγγελματικής Εκπαίδευσης και Κατάρτισης;ΕΕΕΕΚ;5041001;Ε.Ε.Ε.Ε.Κ. Χανίων;2821052100;mail@eeeek.chan.sch.gr;ΧΑΝΙΩΝ;ΧΑΝΙΩΝ;ΧΑΝΙΩΝ;ΧΑΝΙΩΝ;1;Χανίων (Δ.Ε.) 2012;ΔΙΕΥΘΥΝΣΗ Δ.Ε. ΧΑΝΙΩΝ;ΠΕΡΙΦΕΡΕΙΑΚΗ Δ/ΝΣΗ Α/ΘΜΙΑΣ ΚΑΙ Β/ΘΜΙΑΣ ΕΚΠ/ΣΗΣ ΚΡΗΤΗΣ;Μόνιμος;Απόσπαση (με αίτηση - κύριος φορέας);1/9/2017;ΔΙΕΥΘΥΝΣΗ Δ.Ε. ΧΑΝΙΩΝ;NAI
226185;"=""046205300""";Θ;ΣΑΡΑΦΟΒΑ;ΜΑΡΙΑ;ΝΙΚΟΛΑ;ΣΛΑΒΚΑ;Ο. ΝΙΚ0ΝΟΣ 52 ΝΕΑ ΧΩΡΑ ΧΑΝΙΑ;73133;2821095684;6942770424;;;ΠΕ16.01;ΜΟΥΣΙΚΗΣ ΠΤΥΧ. ΜΟΥΣΙΚΗΣ ΕΠΙΣΤΗΜΗΣ;;;Α΄;5;405/Γ/29-04-2015;18/8/2009;Χανίων (Δ.Ε.) 2012;ΔΙΕΥΘΥΝΣΗ Δ.Ε. ΧΑΝΙΩΝ;ΠΕΡΙΦΕΡΕΙΑΚΗ Δ/ΝΣΗ Α/ΘΜΙΑΣ ΚΑΙ Β/ΘΜΙΑΣ ΕΚΠ/ΣΗΣ ΚΡΗΤΗΣ;21;ΟΧΙ;ΟΧΙ;ΟΧΙ;ΟΧΙ;ΟΧΙ;;Γυμνάσια;Μουσικό Γυμνάσιο με Μουσικές Λυκειακές Τάξεις;5012017;Μουσικό Σχολείο Θερίσου;2821088065;mail@gym-mous-theris.chan.sch.gr;ΧΑΝΙΩΝ;ΧΑΝΙΩΝ;ΧΑΝΙΩΝ;ΧΑΝΙΩΝ;1;Χανίων (Δ.Ε.) 2012;ΔΙΕΥΘΥΝΣΗ Δ.Ε. ΧΑΝΙΩΝ;ΠΕΡΙΦΕΡΕΙΑΚΗ Δ/ΝΣΗ Α/ΘΜΙΑΣ ΚΑΙ Β/ΘΜΙΑΣ ΕΚΠ/ΣΗΣ ΚΡΗΤΗΣ;Μόνιμος;Απόσπαση (με αίτηση - κύριος φορέας);1/9/2017;ΔΙΕΥΘΥΝΣΗ Δ.Ε. ΧΑΝΙΩΝ;NAI
211054;"=""101551289""";Α;ΣΤΑΓΑΚΗΣ;ΙΩΑΝΝΗΣ;ΧΡΗΣΤΟΣ;ΜΑΡΙΑ;ΧΟΥΛΙΟΠΟΥΛΟΥ 1 ΧΑΝΙΑ;73131;;6973334536;;gstag76@yahoo.com;ΠΕ19;ΠΛΗΡΟΦΟΡΙΚΗΣ Α.Ε.Ι.;;;Α΄;8;262;4/10/2005;Ρεθύμνου (Δ.Ε.) 2012;ΔΙΕΥΘΥΝΣΗ Δ.Ε. ΡΕΘΥΜΝΟΥ;ΠΕΡΙΦΕΡΕΙΑΚΗ Δ/ΝΣΗ Α/ΘΜΙΑΣ ΚΑΙ Β/ΘΜΙΑΣ ΕΚΠ/ΣΗΣ ΚΡΗΤΗΣ;20;ΟΧΙ;ΟΧΙ;ΟΧΙ;ΟΧΙ;ΟΧΙ;;Λύκεια;Ημερήσιο Γενικό Λύκειο;5051009;Γενικό Λύκειο Ακρωτηρίου;2821044551;mail@lyk-akrot.chan.sch.gr;ΧΑΝΙΩΝ;ΧΑΝΙΩΝ;ΑΚΡΩΤΗΡΙΟΥ;ΚΟΥΝΟΥΠΙΔΙΑΝΩΝ;1;Χανίων (Δ.Ε.) 2012;ΔΙΕΥΘΥΝΣΗ Δ.Ε. ΧΑΝΙΩΝ;ΠΕΡΙΦΕΡΕΙΑΚΗ Δ/ΝΣΗ Α/ΘΜΙΑΣ ΚΑΙ Β/ΘΜΙΑΣ ΕΚΠ/ΣΗΣ ΚΡΗΤΗΣ;Μόνιμος;Απόσπαση (με αίτηση - κύριος φορέας);1/9/2017;ΔΙΕΥΘΥΝΣΗ Δ.Ε. ΧΑΝΙΩΝ;NAI
701249;"=""104216954""";Θ;ΣΤΑΥΡΙΔΟΥ;ΙΣΑΒΕΛΛΑ;ΑΡΙΣΤΟΤΕΛΗΣ;ΣΤΑΜΑΤΙΑ;ΔΟΙΡΑΝΗΣ 10 ΘΕΣΣΑΛΟΝΙΚΗ;54639;2821008953;6977439765;;isavella04@yahoo.gr;ΠΕ16.01;ΜΟΥΣΙΚΗΣ ΠΤΥΧ. ΜΟΥΣΙΚΗΣ ΕΠΙΣΤΗΜΗΣ;;;Α΄;1;772;23/8/2010;Γ΄ Κυκλάδων (Δ.Ε.) 2012;ΔΙΕΥΘΥΝΣΗ Δ.Ε. ΚΥΚΛΑΔΩΝ;ΠΕΡΙΦΕΡΕΙΑΚΗ Δ/ΝΣΗ Α/ΘΜΙΑΣ ΚΑΙ Β/ΘΜΙΑΣ ΕΚΠ/ΣΗΣ ΝΟΤΙΟΥ ΑΙΓΑΙΟΥ;21;ΟΧΙ;ΟΧΙ;ΟΧΙ;ΟΧΙ;ΟΧΙ;;Γυμνάσια;Ημερήσιο Γυμνάσιο;5004010;1ο Γυμνάσιο Κισσάμου;2822022067;1gymkiss@sch.gr;ΧΑΝΙΩΝ;ΚΙΣΣΑΜΟΥ;ΚΙΣΣΑΜΟΥ;ΚΙΣΣΑΜΟΥ;1;Χανίων (Δ.Ε.) 2012;ΔΙΕΥΘΥΝΣΗ Δ.Ε. ΧΑΝΙΩΝ;ΠΕΡΙΦΕΡΕΙΑΚΗ Δ/ΝΣΗ Α/ΘΜΙΑΣ ΚΑΙ Β/ΘΜΙΑΣ ΕΚΠ/ΣΗΣ ΚΡΗΤΗΣ;Μόνιμος;Απόσπαση (με αίτηση - κύριος φορέας);1/9/2017;ΔΙΕΥΘΥΝΣΗ Δ.Ε. ΧΑΝΙΩΝ;NAI
211547;"=""113195792""";Α;ΣΤΕΦΑΝΟΓΙΑΝΝΗΣ;ΑΝΤΩΝΙΟΣ;ΙΩΑΝΝΗΣ;ΜΑΡΙΑ;6η ΠΑΡ. ΑΓ. ΟΝΟΥΦΡΙΟΥ Τ.Θ. 581 ΑΚΡΩΤΗΡΙ - ΧΑΝΙΑ;73142;2821059130;6974623422;;astefanogiannis@gmail.com;ΠΕ19;ΠΛΗΡΟΦΟΡΙΚΗΣ Α.Ε.Ι.;ΠΕ12.05;ΗΛΕΚΤΡΟΛΟΓΟΙ;Α΄;6;316;28/11/2005;Χανίων (Δ.Ε.) 2012;ΔΙΕΥΘΥΝΣΗ Δ.Ε. ΧΑΝΙΩΝ;ΠΕΡΙΦΕΡΕΙΑΚΗ Δ/ΝΣΗ Α/ΘΜΙΑΣ ΚΑΙ Β/ΘΜΙΑΣ ΕΚΠ/ΣΗΣ ΚΡΗΤΗΣ;20;ΟΧΙ;ΟΧΙ;ΟΧΙ;ΟΧΙ;ΟΧΙ;;Αποκεντρωμένες Υπηρεσίες;Διεύθυνση Εκπαίδευσης;5000105;ΔΙΕΥΘΥΝΣΗ Δ.Ε. ΧΑΝΙΩΝ;2821047144;mail@dide.chan.sch.gr;ΧΑΝΙΩΝ;ΧΑΝΙΩΝ;ΧΑΝΙΩΝ;ΧΑΝΙΩΝ;;;;;Μόνιμος;Απόσπαση (με αίτηση - κύριος φορέας);1/9/2017;ΔΙΕΥΘΥΝΣΗ Δ.Ε. ΧΑΝΙΩΝ;NAI
228142;"=""115630636""";Θ;ΣΦΑΚΙΑΝΑΚΗ;ΧΡΥΣΟΥΛΑ;ΜΙΧΑΗΛ;ΣΟΦΙΑ;ΕΥΑΓΓΕΛΟΥ  ΔΑΣΚΑΛΑΚΗ 6 ΡΕΘΥΜΝΟ;74100;2810316606;6973751111;;xrisasfak@gmail.com;ΠΕ11;ΦΥΣΙΚΗΣ ΑΓΩΓΗΣ;;;Α΄;7;654;18/8/2009;Ρεθύμνου (Δ.Ε.) 2012;ΔΙΕΥΘΥΝΣΗ Δ.Ε. ΡΕΘΥΜΝΟΥ;ΠΕΡΙΦΕΡΕΙΑΚΗ Δ/ΝΣΗ Α/ΘΜΙΑΣ ΚΑΙ Β/ΘΜΙΑΣ ΕΚΠ/ΣΗΣ ΚΡΗΤΗΣ;21;ΟΧΙ;ΟΧΙ;ΟΧΙ;ΟΧΙ;ΟΧΙ;;Ειδικής Επαγγελματικής Εκπαίδευσης και Κατάρτισης;ΕΕΕΕΚ;5041001;Ε.Ε.Ε.Ε.Κ. Χανίων;2821052100;mail@eeeek.chan.sch.gr;ΧΑΝΙΩΝ;ΧΑΝΙΩΝ;ΧΑΝΙΩΝ;ΧΑΝΙΩΝ;1;Χανίων (Δ.Ε.) 2012;ΔΙΕΥΘΥΝΣΗ Δ.Ε. ΧΑΝΙΩΝ;ΠΕΡΙΦΕΡΕΙΑΚΗ Δ/ΝΣΗ Α/ΘΜΙΑΣ ΚΑΙ Β/ΘΜΙΑΣ ΕΚΠ/ΣΗΣ ΚΡΗΤΗΣ;Μόνιμος;Απόσπαση (με αίτηση - κύριος φορέας);1/9/2017;ΔΙΕΥΘΥΝΣΗ Δ.Ε. ΧΑΝΙΩΝ;NAI
222681;"=""101970240""";Θ;ΤΣΑΚΙΡΙΔΟΥ;ΧΡΥΣΟΥΛΑ;ΔΗΜΗΤΡΙΟΣ;ΖΩΗ;ΣΚΟΥΤΑΡΙ ;;2321041206;6977811964;;xrisatsakir@gmail.com;ΠΕ02;ΦΙΛΟΛΟΓΟΙ;;;Α΄;4;775;20/8/2008;Εβρου (Δ.Ε.) 2012;ΔΙΕΥΘΥΝΣΗ Δ.Ε. ΕΒΡΟΥ;ΠΕΡΙΦΕΡΕΙΑΚΗ Δ/ΝΣΗ Α/ΘΜΙΑΣ ΚΑΙ Β/ΘΜΙΑΣ ΕΚΠ/ΣΗΣ ΑΝ. ΜΑΚΕΔΟΝΙΑΣ ΚΑΙ ΘΡΑΚΗΣ;21;ΟΧΙ;ΟΧΙ;ΟΧΙ;ΟΧΙ;ΟΧΙ;;Λύκεια;Ημερήσιο Γενικό Λύκειο;5058010;Γενικό Λύκειο Χώρας Σφακίων;2825091037;mail@lyk-sfakion.chan.sch.gr;ΧΑΝΙΩΝ;ΣΦΑΚΙΩΝ;ΣΦΑΚΙΩΝ;ΧΩΡΑΣ ΣΦΑΚΙΩΝ;1;Χανίων (Δ.Ε.) 2012;ΔΙΕΥΘΥΝΣΗ Δ.Ε. ΧΑΝΙΩΝ;ΠΕΡΙΦΕΡΕΙΑΚΗ Δ/ΝΣΗ Α/ΘΜΙΑΣ ΚΑΙ Β/ΘΜΙΑΣ ΕΚΠ/ΣΗΣ ΚΡΗΤΗΣ;Μόνιμος;Απόσπαση (με αίτηση - κύριος φορέας);1/9/2017;ΔΙΕΥΘΥΝΣΗ Δ.Ε. ΧΑΝΙΩΝ;NAI
138199;"=""022461153""";Α;ΤΣΟΥΡΟΥΠΑΚΗΣ;ΚΩΝ ΝΟΣ;ΕΜΜΑΝΟΥΗΛ;ΔΕΣΠΟΙΝΑ; ;;;;;;ΠΕ03;ΜΑΘΗΜΑΤΙΚΟΙ;;;Α΄;17;271;1/9/1982;Χανίων (Δ.Ε.) 2012;ΔΙΕΥΘΥΝΣΗ Δ.Ε. ΧΑΝΙΩΝ;ΠΕΡΙΦΕΡΕΙΑΚΗ Δ/ΝΣΗ Α/ΘΜΙΑΣ ΚΑΙ Β/ΘΜΙΑΣ ΕΚΠ/ΣΗΣ ΚΡΗΤΗΣ;18;ΟΧΙ;ΟΧΙ;ΟΧΙ;ΟΧΙ;ΟΧΙ;;Αποκεντρωμένες Υπηρεσίες;Διεύθυνση Εκπαίδευσης;5000105;ΔΙΕΥΘΥΝΣΗ Δ.Ε. ΧΑΝΙΩΝ;2821047144;mail@dide.chan.sch.gr;ΧΑΝΙΩΝ;ΧΑΝΙΩΝ;ΧΑΝΙΩΝ;ΧΑΝΙΩΝ;;;;;Μόνιμος;Απόσπαση (με αίτηση - κύριος φορέας);1/9/2017;ΔΙΕΥΘΥΝΣΗ Δ.Ε. ΧΑΝΙΩΝ;NAI
202098;"=""076396006""";Θ;ΦΡΟΥΔΑΡΑΚΗ;ΑΙΚΑΤΕΡΙΝΗ;ΕΜΜΑΝΟΥΗΛ;ΕΥΤΥΧΙΑ;ΑΚΡΩΤΗΡΙΟΥ ΚΟΥΝΟΥΠΙΔΙΑΝΑ;;2821099605;6978128139;;faee73@gmail.com;ΠΕ02;ΦΙΛΟΛΟΓΟΙ;;;Α΄;6;231;31/8/2004;Ηρακλείου (Δ.Ε.) 2012;ΔΙΕΥΘΥΝΣΗ Δ.Ε. ΗΡΑΚΛΕΙΟΥ;ΠΕΡΙΦΕΡΕΙΑΚΗ Δ/ΝΣΗ Α/ΘΜΙΑΣ ΚΑΙ Β/ΘΜΙΑΣ ΕΚΠ/ΣΗΣ ΚΡΗΤΗΣ;20;ΟΧΙ;ΟΧΙ;ΟΧΙ;ΟΧΙ;ΟΧΙ;;Γυμνάσια;Ημερήσιο Γυμνάσιο;5001076;2ο Γυμνάσιο Ελευθερίου Βενιζέλου;2821088808;mail@2gym-el-venizel.chan.sch.gr;ΧΑΝΙΩΝ;ΧΑΝΙΩΝ;ΕΛΕΥΘΕΡΙΟΥ ΒΕΝΙΖΕΛΟΥ;ΜΟΥΡΝΙΩΝ;1;Χανίων (Δ.Ε.) 2012;ΔΙΕΥΘΥΝΣΗ Δ.Ε. ΧΑΝΙΩΝ;ΠΕΡΙΦΕΡΕΙΑΚΗ Δ/ΝΣΗ Α/ΘΜΙΑΣ ΚΑΙ Β/ΘΜΙΑΣ ΕΚΠ/ΣΗΣ ΚΡΗΤΗΣ;Μόνιμος;Απόσπαση (με αίτηση - κύριος φορέας);1/9/2017;ΔΙΕΥΘΥΝΣΗ Δ.Ε. ΧΑΝΙΩΝ;NAI